{
	"info": {
		"_postman_id": "c61fae43-7591-44e2-8be8-d33ddc5cb8da",
		"name": "OpenWeather",
		"schema": "https://schema.getpostman.com/json/collection/v2.1.0/collection.json"
	},
	"item": [
		{
			"name": "Create Weather Station",
			"event": [
				{
					"listen": "test",
					"script": {
						"exec": [
							"if (pm.response.code === 201 || pm.response.code === 200 || pm.response.code || 202 || pm.response.code === 204) {\r",
							"\t//If Successful, continue with tests\r",
							"\t\r",
							"\t// GET response data and assign to variable\r",
							"\tvar jsonData = pm.response.json();\r",
							"\t//Set AccountId in Environment Variable\r",
							"    pm.environment.set('ID', jsonData.ID);\r",
							"}\r",
							"    pm.test(\"Response code is expected: \" + pm.response.code, function () { \r",
							"    pm.expect(pm.response.code).to.be.oneOf([200, 201]);\r",
							"    });"
						],
						"type": "text/javascript"
					}
				}
			],
			"request": {
				"auth": {
					"type": "apikey",
					"apikey": [
						{
							"key": "key",
							"value": "key",
							"type": "string"
						},
						{
							"key": "value",
							"value": "b27f8a03c57c8dee18a57361b3a8ab73",
							"type": "string"
						}
					]
				},
				"method": "POST",
				"header": [
					{
						"key": "key",
						"value": "",
						"type": "text",
						"disabled": true
					}
				],
				"body": {
					"mode": "raw",
					"raw": "{\r\n  \"external_id\": \"{{External_Id}}\",\r\n  \"name\": \"Aphiwe weather dtstion\",\r\n  \"latitude\": 37.76,\r\n  \"longitude\": -122.43,\r\n  \"altitude\": 150\r\n}",
					"options": {
						"raw": {
							"language": "json"
						}
					}
				},
				"url": {
					"raw": "http://api.openweathermap.org/data/3.0/stations?appid={{API_KEY}}",
					"protocol": "http",
					"host": [
						"api",
						"openweathermap",
						"org"
					],
					"path": [
						"data",
						"3.0",
						"stations"
					],
					"query": [
						{
							"key": "appid",
							"value": "{{API_KEY}}"
						}
					]
				}
			},
			"response": []
		},
		{
			"name": "GET Weather Station",
			"protocolProfileBehavior": {
				"disabledSystemHeaders": {
					"connection": true,
					"accept-encoding": true,
					"accept": true,
					"user-agent": true
				}
			},
			"request": {
				"method": "GET",
				"header": [],
				"url": {
					"raw": "http://api.openweathermap.org/data/3.0/stations/{{ID}}?appid={{API_KEY}}",
					"protocol": "http",
					"host": [
						"api",
						"openweathermap",
						"org"
					],
					"path": [
						"data",
						"3.0",
						"stations",
						"{{ID}}"
					],
					"query": [
						{
							"key": "appid",
							"value": "{{API_KEY}}"
						}
					]
				}
			},
			"response": []
		},
		{
			"name": "Update Weather Station",
			"event": [
				{
					"listen": "test",
					"script": {
						"exec": [
							""
						],
						"type": "text/javascript"
					}
				}
			],
			"request": {
				"method": "PUT",
				"header": [],
				"body": {
					"mode": "raw",
					"raw": "{\r\n  \"external_id\": \"{{External_Id}}\",\r\n  \"name\": \"Aphiwe weather dtstion\",\r\n  \"latitude\": 37.76,\r\n  \"longitude\": -122.43,\r\n  \"altitude\": 150\r\n}\r\n",
					"options": {
						"raw": {
							"language": "json"
						}
					}
				},
				"url": {
					"raw": "http://api.openweathermap.org/data/3.0/stations/{{ID}}?appid={{API_KEY}}",
					"protocol": "http",
					"host": [
						"api",
						"openweathermap",
						"org"
					],
					"path": [
						"data",
						"3.0",
						"stations",
						"{{ID}}"
					],
					"query": [
						{
							"key": "appid",
							"value": "{{API_KEY}}"
						}
					]
				}
			},
			"response": []
		},
		{
			"name": "Delete Weather Station",
			"event": [
				{
					"listen": "test",
					"script": {
						"exec": [
							""
						],
						"type": "text/javascript"
					}
				}
			],
			"request": {
				"method": "DELETE",
				"header": [],
				"body": {
					"mode": "raw",
					"raw": "{\r\n    \"ID\": \"61af088709e7430001ba28cc\",\r\n    \"updated_at\": \"2021-12-07T07:08:55.70198929Z\",\r\n    \"created_at\": \"2021-12-07T07:08:55.701989078Z\",\r\n    \"user_id\": \"61add149487b930008df8502\",\r\n    \"external_id\": \"TestNAme11\",\r\n    \"name\": \"Aphiwe weather dtstion\",\r\n    \"latitude\": 37.76,\r\n    \"longitude\": -122.43,\r\n    \"altitude\": 150,\r\n    \"rank\": 10,\r\n    \"source_type\": 5\r\n}",
					"options": {
						"raw": {
							"language": "json"
						}
					}
				},
				"url": {
					"raw": "http://api.openweathermap.org/data/3.0/stations/{{ID}}?appid={{API_KEY}}",
					"protocol": "http",
					"host": [
						"api",
						"openweathermap",
						"org"
					],
					"path": [
						"data",
						"3.0",
						"stations",
						"{{ID}}"
					],
					"query": [
						{
							"key": "appid",
							"value": "{{API_KEY}}"
						}
					]
				}
			},
			"response": []
		}
	],
	"auth": {
		"type": "apikey",
		"apikey": [
			{
				"key": "value",
				"value": "b27f8a03c57c8dee18a57361b3a8ab73",
				"type": "string"
			},
			{
				"key": "key",
				"value": "key",
				"type": "string"
			}
		]
	},
	"event": [
		{
			"listen": "prerequest",
			"script": {
				"type": "text/javascript",
				"exec": [
					""
				]
			}
		},
		{
			"listen": "test",
			"script": {
				"type": "text/javascript",
				"exec": [
					""
				]
			}
		}
	],
	"variable": [
		{
			"key": "b27f8a03c57c8dee18a57361b3a8ab73",
			"value": "key",
			"disabled": true
		},
		{
			"value": "",
			"disabled": true
		},
		{
			"key": "collectionResponses",
			"value": ""
		}
	]
}